{
  "repoName": "hackathon-smash-exp-api",
  "repoShortName": "hackathon-smash-exp",
  "lbEntries": [
    "/hackathon-smash-exp-api*"
  ],
  "port": 3090,
  "minNodes": 2,
  "maxNodes": 10,
  "tierType": "experience",
  "scope": "Public",
  "template": "nodejs-web-template",
  "alarms": [
  ]
}
